{   
    "title": "JSON Schema Validation",
    "description": "Demo : working with json schemas",
    "type": "object",
    "additionalProperties": false,
    "properties":{
        "user":{
            "description": "user event",
            "type": "string"
        },
        "events": {
            "description": "events that the user did into the app",
            "type": "array",
            "minItems" :1,
            "items":{
                "type": "object",
                "additionalProperties": false,
                "properties":{
                    "date_event": {
                        "description": "event date",
                        "type":"string",
                        "format": "date-time"
                    },
                    "event":{
                        "description": "event description or audit actions",
                        "type": "string",
                        "minLength": 5,
                        "maxLength": 1000
                    },
                    "event_type":{
                        "description": "log event type",
                        "type": "string",
                        "enum": ["warning","error","info"]
                    }
                },
                "required":[
                    "date_event",
                    "event",
                    "event_type"
                ]
            }
        }
    },
    "required":[
        "user",
        "events"
    ]
}